[35m[Appium][39m Welcome to Appium v1.22.3
[35m[Appium][39m Non-default server args:
[35m[Appium][39m   port: 64915
[35m[Appium][39m   loglevel: info
[35m[Appium][39m   tmpDir: /var/folders/5t/82d05h3j0wg7z8zdf3wx3czw0000gp/T//Katalon/Appium/Temp1675938437590
[35m[Appium][39m   chromedriverPort: 64916
[35m[Appium][39m Deprecated server args:
[35m[Appium][39m   [31m--chromedriver-port[39m => --default-capabilities
[35m[Appium][39m Default capabilities, which will be added to each request unless overridden by desired capabilities:
[35m[Appium][39m   chromedriverPort: 64916
[35m[Appium][39m Appium REST http interface listener started on 0.0.0.0:64915
[35m[HTTP][39m [37m-->[39m [37mGET[39m [37m/wd/hub/status[39m
[35m[HTTP][39m [90m{}[39m
[35m[HTTP][39m [37m<-- GET /wd/hub/status [39m[32m200[39m [90m5 ms - 68[39m
[35m[HTTP][39m [90m[39m
[35m[HTTP][39m [37m-->[39m [37mGET[39m [37m/wd/hub/status[39m
[35m[HTTP][39m [90m{}[39m
[35m[HTTP][39m [37m<-- GET /wd/hub/status [39m[32m200[39m [90m1 ms - 68[39m
[35m[HTTP][39m [90m[39m
[35m[HTTP][39m [37m-->[39m [37mPOST[39m [37m/wd/hub/session[39m
[35m[HTTP][39m [90m{"desiredCapabilities":{"app":"/Users/da/Documents/QA/da-droid-3-main/Apk/app.apk","noReset":true,"deviceName":"samsung SM-G955N (Android 7.1.2)","fullReset":false,"platform":"ANDROID","newCommandTimeout":1800,"platformVersion":"7.1.2","automationName":"uiautomator2","autoGrantPermissions":true,"platformName":"Android","udid":"127.0.0.1:62001","systemPort":64968},"capabilities":{"firstMatch":[{"appium:app":"/Users/da/Documents/QA/da-droid-3-main/Apk/app.apk","appium:autoGrantPermissions":true,"appium:automationName":"uiautomator2","appium:deviceName":"samsung SM-G955N (Android 7.1.2)","appium:fullReset":false,"appium:newCommandTimeout":1800,"appium:noReset":true,"platform":"ANDROID","platformName":"android","appium:platformVersion":"7.1.2","appium:systemPort":64968,"appium:udid":"127.0.0.1:62001"}]}}[39m
[35m[BaseDriver][39m The following capabilities are not standard capabilities and should have an extension prefix:
[35m[BaseDriver][39m   platform
[35m[BaseDriver][39m   chromedriverPort
[35m[Appium][39m Appium v1.22.3 creating new AndroidUiautomator2Driver (v1.70.1) session
[35m[BaseDriver][39m The following capabilities were provided, but are not recognized by Appium:
[35m[BaseDriver][39m   platform
[35m[BaseDriver][39m Session created with session id: de6fbf20-52eb-4319-9083-2d5444f8ae74
[35m[BaseDriver][39m Using local app '/Users/da/Documents/QA/da-droid-3-main/Apk/app.apk'
[35m[ADB][39m Found 1 'build-tools' folders under '/Users/da/.katalon/tools/android_sdk' (newest first):
[35m[ADB][39m     /Users/da/.katalon/tools/android_sdk/build-tools/33.0.2
[35m[ADB][39m Using 'adb' from '/Users/da/.katalon/tools/android_sdk/platform-tools/adb'
[35m[AndroidDriver][39m Retrieving device list
[35m[AndroidDriver][39m Using device: 127.0.0.1:62001
[35m[ADB][39m Using 'adb' from '/Users/da/.katalon/tools/android_sdk/platform-tools/adb'
[35m[ADB][39m Package name: 'com.loginmodule.learning'
[35m[ADB][39m Main activity name: 'com.loginmodule.learning.activities.LoginActivity'
[35m[ADB][39m Using 'apksigner.jar' from '/Users/da/.katalon/tools/android_sdk/build-tools/33.0.2/lib/apksigner.jar'
[35m[ADB][39m '/usr/local/lib/node_modules/appium/node_modules/appium-uiautomator2-server/apks/appium-uiautomator2-server-v4.27.0.apk' is signed with the default certificate
[35m[ADB][39m '/usr/local/lib/node_modules/appium/node_modules/appium-uiautomator2-server/apks/appium-uiautomator2-server-debug-androidTest.apk' is signed with the default certificate
[35m[UiAutomator2][39m Server packages are not going to be (re)installed
[35m[ADB][39m Adding packages ["io.appium.settings","io.appium.uiautomator2.server","io.appium.uiautomator2.server.test"] to Doze whitelist
[35m[ADB][39m '/Users/da/Documents/QA/da-droid-3-main/Apk/app.apk' is signed with a non-default certificate
[35m[ADB][39m The application at '/Users/da/Documents/QA/da-droid-3-main/Apk/app.apk' will not be cached, because the device under test has confirmed the support of streamed installs
[35m[ADB][39m The installation of 'app.apk' took 6457ms
[35m[UiAutomator2][39m Starting UIAutomator2 server 4.27.0
[35m[UiAutomator2][39m Using UIAutomator2 server from '/usr/local/lib/node_modules/appium/node_modules/appium-uiautomator2-server/apks/appium-uiautomator2-server-v4.27.0.apk' and test from '/usr/local/lib/node_modules/appium/node_modules/appium-uiautomator2-server/apks/appium-uiautomator2-server-debug-androidTest.apk'
[35m[UiAutomator2][39m Waiting up to 30000ms for UiAutomator2 to be online...
[35m[WD Proxy][39m socket hang up
[35m[WD Proxy][39m socket hang up
[35m[WD Proxy][39m Determined the downstream protocol as 'W3C'
[35m[AndroidDriver][39m Screen already unlocked, doing nothing
[35m[UiAutomator2][39m Starting 'com.loginmodule.learning/com.loginmodule.learning.activities.LoginActivity and waiting for 'com.loginmodule.learning/com.loginmodule.learning.activities.LoginActivity'
[35m[Appium][39m New AndroidUiautomator2Driver session created successfully, session de6fbf20-52eb-4319-9083-2d5444f8ae74 added to master session list
[35m[HTTP][39m [37m<-- POST /wd/hub/session [39m[32m200[39m [90m20137 ms - 1281[39m
[35m[HTTP][39m [90m[39m
[35m[HTTP][39m [37m-->[39m [37mGET[39m [37m/wd/hub/session/de6fbf20-52eb-4319-9083-2d5444f8ae74[39m
[35m[HTTP][39m [90m{}[39m
[35m[HTTP][39m [37m<-- GET /wd/hub/session/de6fbf20-52eb-4319-9083-2d5444f8ae74 [39m[32m200[39m [90m6 ms - 1235[39m
[35m[HTTP][39m [90m[39m
[35m[HTTP][39m [37m-->[39m [37mGET[39m [37m/wd/hub/session/de6fbf20-52eb-4319-9083-2d5444f8ae74[39m
[35m[HTTP][39m [90m{}[39m
[35m[HTTP][39m [37m<-- GET /wd/hub/session/de6fbf20-52eb-4319-9083-2d5444f8ae74 [39m[32m200[39m [90m4 ms - 1235[39m
[35m[HTTP][39m [90m[39m
[35m[HTTP][39m [37m-->[39m [37mGET[39m [37m/wd/hub/status[39m
[35m[HTTP][39m [90m{}[39m
[35m[HTTP][39m [37m<-- GET /wd/hub/status [39m[32m200[39m [90m1 ms - 68[39m
[35m[HTTP][39m [90m[39m
[35m[HTTP][39m [37m-->[39m [37mPOST[39m [37m/wd/hub/session/de6fbf20-52eb-4319-9083-2d5444f8ae74/timeouts[39m
[35m[HTTP][39m [90m{"implicit":60000}[39m
[35m[HTTP][39m [37m<-- POST /wd/hub/session/de6fbf20-52eb-4319-9083-2d5444f8ae74/timeouts [39m[32m200[39m [90m2 ms - 14[39m
[35m[HTTP][39m [90m[39m
[35m[HTTP][39m [37m-->[39m [37mGET[39m [37m/wd/hub/session/de6fbf20-52eb-4319-9083-2d5444f8ae74/source[39m
[35m[HTTP][39m [90m{}[39m
[35m[W3C (de6fbf20)][39m Driver proxy active, passing request on via HTTP proxy
[35m[WD Proxy][39m Replacing sessionId e05d05b0-6f80-4f32-b60d-1744779b6ea3 with de6fbf20-52eb-4319-9083-2d5444f8ae74
[35m[HTTP][39m [37m<-- GET /wd/hub/session/de6fbf20-52eb-4319-9083-2d5444f8ae74/source [39m[32m200[39m [90m427 ms - 6962[39m
[35m[HTTP][39m [90m[39m
[35m[HTTP][39m [37m-->[39m [37mGET[39m [37m/wd/hub/session/de6fbf20-52eb-4319-9083-2d5444f8ae74/screenshot[39m
[35m[HTTP][39m [90m{}[39m
[35m[HTTP][39m [37m<-- GET /wd/hub/session/de6fbf20-52eb-4319-9083-2d5444f8ae74/screenshot [39m[32m200[39m [90m320 ms - 66752[39m
[35m[HTTP][39m [90m[39m
[35m[HTTP][39m [37m-->[39m [37mPOST[39m [37m/wd/hub/session/de6fbf20-52eb-4319-9083-2d5444f8ae74/elements[39m
[35m[HTTP][39m [90m{"using":"xpath","value":"//*[@class = 'android.widget.TextView' and (@text = 'No account yet? Create one' or . = 'No account yet? Create one') and @resource-id = 'com.loginmodule.learning:id/textViewLinkRegister']"}[39m
[35m[HTTP][39m [37m<-- POST /wd/hub/session/de6fbf20-52eb-4319-9083-2d5444f8ae74/elements [39m[32m200[39m [90m80 ms - 139[39m
[35m[HTTP][39m [90m[39m
[35m[HTTP][39m [37m-->[39m [37mGET[39m [37m/wd/hub/session/de6fbf20-52eb-4319-9083-2d5444f8ae74/window/rect[39m
[35m[HTTP][39m [90m{}[39m
[35m[HTTP][39m [37m<-- GET /wd/hub/session/de6fbf20-52eb-4319-9083-2d5444f8ae74/window/rect [39m[32m200[39m [90m12 ms - 50[39m
[35m[HTTP][39m [90m[39m
[35m[HTTP][39m [37m-->[39m [37mPOST[39m [37m/wd/hub/session/de6fbf20-52eb-4319-9083-2d5444f8ae74/elements[39m
[35m[HTTP][39m [90m{"using":"xpath","value":"//*[@class = 'android.widget.TextView' and (@text = 'No account yet? Create one' or . = 'No account yet? Create one') and @resource-id = 'com.loginmodule.learning:id/textViewLinkRegister']"}[39m
[35m[HTTP][39m [37m<-- POST /wd/hub/session/de6fbf20-52eb-4319-9083-2d5444f8ae74/elements [39m[32m200[39m [90m16 ms - 139[39m
[35m[HTTP][39m [90m[39m
[35m[HTTP][39m [37m-->[39m [37mGET[39m [37m/wd/hub/session/de6fbf20-52eb-4319-9083-2d5444f8ae74/element/00000000-0000-00d2-7fff-ffff0000000e/location[39m
[35m[HTTP][39m [90m{}[39m
[35m[W3C (de6fbf20)][39m Driver proxy active, passing request on via HTTP proxy
[35m[WD Proxy][39m Replacing sessionId e05d05b0-6f80-4f32-b60d-1744779b6ea3 with de6fbf20-52eb-4319-9083-2d5444f8ae74
[35m[HTTP][39m [37m<-- GET /wd/hub/session/de6fbf20-52eb-4319-9083-2d5444f8ae74/element/00000000-0000-00d2-7fff-ffff0000000e/location [39m[32m200[39m [90m8 ms - 78[39m
[35m[HTTP][39m [90m[39m
[35m[HTTP][39m [37m-->[39m [37mPOST[39m [37m/wd/hub/session/de6fbf20-52eb-4319-9083-2d5444f8ae74/element/00000000-0000-00d2-7fff-ffff0000000e/click[39m
[35m[HTTP][39m [90m{"id":"00000000-0000-00d2-7fff-ffff0000000e"}[39m
[35m[HTTP][39m [37m<-- POST /wd/hub/session/de6fbf20-52eb-4319-9083-2d5444f8ae74/element/00000000-0000-00d2-7fff-ffff0000000e/click [39m[32m200[39m [90m18 ms - 14[39m
[35m[HTTP][39m [90m[39m
[35m[HTTP][39m [37m-->[39m [37mGET[39m [37m/wd/hub/session/de6fbf20-52eb-4319-9083-2d5444f8ae74/source[39m
[35m[HTTP][39m [90m{}[39m
[35m[W3C (de6fbf20)][39m Driver proxy active, passing request on via HTTP proxy
[35m[WD Proxy][39m Replacing sessionId e05d05b0-6f80-4f32-b60d-1744779b6ea3 with de6fbf20-52eb-4319-9083-2d5444f8ae74
[35m[HTTP][39m [37m<-- GET /wd/hub/session/de6fbf20-52eb-4319-9083-2d5444f8ae74/source [39m[32m200[39m [90m261 ms - 8462[39m
[35m[HTTP][39m [90m[39m
[35m[HTTP][39m [37m-->[39m [37mGET[39m [37m/wd/hub/session/de6fbf20-52eb-4319-9083-2d5444f8ae74/screenshot[39m
[35m[HTTP][39m [90m{}[39m
[35m[HTTP][39m [37m<-- GET /wd/hub/session/de6fbf20-52eb-4319-9083-2d5444f8ae74/screenshot [39m[32m200[39m [90m272 ms - 72558[39m
[35m[HTTP][39m [90m[39m
[35m[HTTP][39m [37m-->[39m [37mPOST[39m [37m/wd/hub/session/de6fbf20-52eb-4319-9083-2d5444f8ae74/elements[39m
[35m[HTTP][39m [90m{"using":"xpath","value":"//*[@class = 'android.widget.EditText' and @resource-id = 'com.loginmodule.learning:id/textInputEditTextName' and (@text = '' or . = '')]"}[39m
[35m[HTTP][39m [37m<-- POST /wd/hub/session/de6fbf20-52eb-4319-9083-2d5444f8ae74/elements [39m[32m200[39m [90m17 ms - 139[39m
[35m[HTTP][39m [90m[39m
[35m[HTTP][39m [37m-->[39m [37mGET[39m [37m/wd/hub/session/de6fbf20-52eb-4319-9083-2d5444f8ae74/window/rect[39m
[35m[HTTP][39m [90m{}[39m
[35m[HTTP][39m [37m<-- GET /wd/hub/session/de6fbf20-52eb-4319-9083-2d5444f8ae74/window/rect [39m[32m200[39m [90m11 ms - 50[39m
[35m[HTTP][39m [90m[39m
[35m[HTTP][39m [37m-->[39m [37mPOST[39m [37m/wd/hub/session/de6fbf20-52eb-4319-9083-2d5444f8ae74/elements[39m
[35m[HTTP][39m [90m{"using":"xpath","value":"//*[@class = 'android.widget.EditText' and @resource-id = 'com.loginmodule.learning:id/textInputEditTextName' and (@text = '' or . = '')]"}[39m
[35m[HTTP][39m [37m<-- POST /wd/hub/session/de6fbf20-52eb-4319-9083-2d5444f8ae74/elements [39m[32m200[39m [90m16 ms - 139[39m
[35m[HTTP][39m [90m[39m
[35m[HTTP][39m [37m-->[39m [37mGET[39m [37m/wd/hub/session/de6fbf20-52eb-4319-9083-2d5444f8ae74/element/00000000-0000-00d3-7fff-ffff00000014/location[39m
[35m[HTTP][39m [90m{}[39m
[35m[W3C (de6fbf20)][39m Driver proxy active, passing request on via HTTP proxy
[35m[WD Proxy][39m Replacing sessionId e05d05b0-6f80-4f32-b60d-1744779b6ea3 with de6fbf20-52eb-4319-9083-2d5444f8ae74
[35m[HTTP][39m [37m<-- GET /wd/hub/session/de6fbf20-52eb-4319-9083-2d5444f8ae74/element/00000000-0000-00d3-7fff-ffff00000014/location [39m[32m200[39m [90m8 ms - 77[39m
[35m[HTTP][39m [90m[39m
[35m[HTTP][39m [37m-->[39m [37mPOST[39m [37m/wd/hub/session/de6fbf20-52eb-4319-9083-2d5444f8ae74/element/00000000-0000-00d3-7fff-ffff00000014/clear[39m
[35m[HTTP][39m [90m{"id":"00000000-0000-00d3-7fff-ffff00000014"}[39m
[35m[HTTP][39m [37m<-- POST /wd/hub/session/de6fbf20-52eb-4319-9083-2d5444f8ae74/element/00000000-0000-00d3-7fff-ffff00000014/clear [39m[32m200[39m [90m10 ms - 14[39m
[35m[HTTP][39m [90m[39m
[35m[HTTP][39m [37m-->[39m [37mPOST[39m [37m/wd/hub/session/de6fbf20-52eb-4319-9083-2d5444f8ae74/element/00000000-0000-00d3-7fff-ffff00000014/value[39m
[35m[HTTP][39m [90m{"id":"00000000-0000-00d3-7fff-ffff00000014","text":"sdrftvgybhnj","value":["s","d","r","f","t","v","g","y","b","h","n","j"]}[39m
[35m[HTTP][39m [37m<-- POST /wd/hub/session/de6fbf20-52eb-4319-9083-2d5444f8ae74/element/00000000-0000-00d3-7fff-ffff00000014/value [39m[32m200[39m [90m517 ms - 14[39m
[35m[HTTP][39m [90m[39m
[35m[HTTP][39m [37m-->[39m [37mGET[39m [37m/wd/hub/session/de6fbf20-52eb-4319-9083-2d5444f8ae74/source[39m
[35m[HTTP][39m [90m{}[39m
[35m[W3C (de6fbf20)][39m Driver proxy active, passing request on via HTTP proxy
[35m[WD Proxy][39m Replacing sessionId e05d05b0-6f80-4f32-b60d-1744779b6ea3 with de6fbf20-52eb-4319-9083-2d5444f8ae74
[35m[HTTP][39m [37m<-- GET /wd/hub/session/de6fbf20-52eb-4319-9083-2d5444f8ae74/source [39m[32m200[39m [90m20 ms - 8474[39m
[35m[HTTP][39m [90m[39m
[35m[HTTP][39m [37m-->[39m [37mGET[39m [37m/wd/hub/session/de6fbf20-52eb-4319-9083-2d5444f8ae74/screenshot[39m
[35m[HTTP][39m [90m{}[39m
[35m[HTTP][39m [37m<-- GET /wd/hub/session/de6fbf20-52eb-4319-9083-2d5444f8ae74/screenshot [39m[32m200[39m [90m298 ms - 79864[39m
[35m[HTTP][39m [90m[39m
[35m[HTTP][39m [37m-->[39m [37mPOST[39m [37m/wd/hub/session/de6fbf20-52eb-4319-9083-2d5444f8ae74/elements[39m
[35m[HTTP][39m [90m{"using":"xpath","value":"//*[@class = 'android.widget.EditText' and @resource-id = 'com.loginmodule.learning:id/textInputEditTextEmail' and (@text = '' or . = '')]"}[39m
[35m[HTTP][39m [37m<-- POST /wd/hub/session/de6fbf20-52eb-4319-9083-2d5444f8ae74/elements [39m[32m200[39m [90m18 ms - 139[39m
[35m[HTTP][39m [90m[39m
[35m[HTTP][39m [37m-->[39m [37mGET[39m [37m/wd/hub/session/de6fbf20-52eb-4319-9083-2d5444f8ae74/window/rect[39m
[35m[HTTP][39m [90m{}[39m
[35m[HTTP][39m [37m<-- GET /wd/hub/session/de6fbf20-52eb-4319-9083-2d5444f8ae74/window/rect [39m[32m200[39m [90m10 ms - 50[39m
[35m[HTTP][39m [90m[39m
[35m[HTTP][39m [37m-->[39m [37mPOST[39m [37m/wd/hub/session/de6fbf20-52eb-4319-9083-2d5444f8ae74/elements[39m
[35m[HTTP][39m [90m{"using":"xpath","value":"//*[@class = 'android.widget.EditText' and @resource-id = 'com.loginmodule.learning:id/textInputEditTextEmail' and (@text = '' or . = '')]"}[39m
[35m[HTTP][39m [37m<-- POST /wd/hub/session/de6fbf20-52eb-4319-9083-2d5444f8ae74/elements [39m[32m200[39m [90m19 ms - 139[39m
[35m[HTTP][39m [90m[39m
[35m[HTTP][39m [37m-->[39m [37mGET[39m [37m/wd/hub/session/de6fbf20-52eb-4319-9083-2d5444f8ae74/element/00000000-0000-00d3-7fff-ffff00000021/location[39m
[35m[HTTP][39m [90m{}[39m
[35m[W3C (de6fbf20)][39m Driver proxy active, passing request on via HTTP proxy
[35m[WD Proxy][39m Replacing sessionId e05d05b0-6f80-4f32-b60d-1744779b6ea3 with de6fbf20-52eb-4319-9083-2d5444f8ae74
[35m[HTTP][39m [37m<-- GET /wd/hub/session/de6fbf20-52eb-4319-9083-2d5444f8ae74/element/00000000-0000-00d3-7fff-ffff00000021/location [39m[32m200[39m [90m7 ms - 77[39m
[35m[HTTP][39m [90m[39m
[35m[HTTP][39m [37m-->[39m [37mPOST[39m [37m/wd/hub/session/de6fbf20-52eb-4319-9083-2d5444f8ae74/element/00000000-0000-00d3-7fff-ffff00000021/clear[39m
[35m[HTTP][39m [90m{"id":"00000000-0000-00d3-7fff-ffff00000021"}[39m
[35m[HTTP][39m [37m<-- POST /wd/hub/session/de6fbf20-52eb-4319-9083-2d5444f8ae74/element/00000000-0000-00d3-7fff-ffff00000021/clear [39m[32m200[39m [90m9 ms - 14[39m
[35m[HTTP][39m [90m[39m
[35m[HTTP][39m [37m-->[39m [37mPOST[39m [37m/wd/hub/session/de6fbf20-52eb-4319-9083-2d5444f8ae74/element/00000000-0000-00d3-7fff-ffff00000021/value[39m
[35m[HTTP][39m [90m{"id":"00000000-0000-00d3-7fff-ffff00000021","text":"sedftvgbh@gmail.com","value":["s","e","d","f","t","v","g","b","h","@","g","m","a","i","l",".","c","o","m"]}[39m
[35m[HTTP][39m [37m<-- POST /wd/hub/session/de6fbf20-52eb-4319-9083-2d5444f8ae74/element/00000000-0000-00d3-7fff-ffff00000021/value [39m[32m200[39m [90m499 ms - 14[39m
[35m[HTTP][39m [90m[39m
[35m[HTTP][39m [37m-->[39m [37mGET[39m [37m/wd/hub/session/de6fbf20-52eb-4319-9083-2d5444f8ae74/source[39m
[35m[HTTP][39m [90m{}[39m
[35m[W3C (de6fbf20)][39m Driver proxy active, passing request on via HTTP proxy
[35m[WD Proxy][39m Replacing sessionId e05d05b0-6f80-4f32-b60d-1744779b6ea3 with de6fbf20-52eb-4319-9083-2d5444f8ae74
[35m[HTTP][39m [37m<-- GET /wd/hub/session/de6fbf20-52eb-4319-9083-2d5444f8ae74/source [39m[32m200[39m [90m16 ms - 8493[39m
[35m[HTTP][39m [90m[39m
[35m[HTTP][39m [37m-->[39m [37mGET[39m [37m/wd/hub/session/de6fbf20-52eb-4319-9083-2d5444f8ae74/screenshot[39m
[35m[HTTP][39m [90m{}[39m
[35m[HTTP][39m [37m<-- GET /wd/hub/session/de6fbf20-52eb-4319-9083-2d5444f8ae74/screenshot [39m[32m200[39m [90m292 ms - 91116[39m
[35m[HTTP][39m [90m[39m
[35m[HTTP][39m [37m-->[39m [37mPOST[39m [37m/wd/hub/session/de6fbf20-52eb-4319-9083-2d5444f8ae74/elements[39m
[35m[HTTP][39m [90m{"using":"xpath","value":"//*[@class = 'android.widget.EditText' and @resource-id = 'com.loginmodule.learning:id/textInputEditTextPassword' and (@text = '' or . = '')]"}[39m
[35m[HTTP][39m [37m<-- POST /wd/hub/session/de6fbf20-52eb-4319-9083-2d5444f8ae74/elements [39m[32m200[39m [90m18 ms - 139[39m
[35m[HTTP][39m [90m[39m
[35m[HTTP][39m [37m-->[39m [37mGET[39m [37m/wd/hub/session/de6fbf20-52eb-4319-9083-2d5444f8ae74/window/rect[39m
[35m[HTTP][39m [90m{}[39m
[35m[HTTP][39m [37m<-- GET /wd/hub/session/de6fbf20-52eb-4319-9083-2d5444f8ae74/window/rect [39m[32m200[39m [90m6 ms - 50[39m
[35m[HTTP][39m [90m[39m
[35m[HTTP][39m [37m-->[39m [37mPOST[39m [37m/wd/hub/session/de6fbf20-52eb-4319-9083-2d5444f8ae74/elements[39m
[35m[HTTP][39m [90m{"using":"xpath","value":"//*[@class = 'android.widget.EditText' and @resource-id = 'com.loginmodule.learning:id/textInputEditTextPassword' and (@text = '' or . = '')]"}[39m
[35m[HTTP][39m [37m<-- POST /wd/hub/session/de6fbf20-52eb-4319-9083-2d5444f8ae74/elements [39m[32m200[39m [90m16 ms - 139[39m
[35m[HTTP][39m [90m[39m
[35m[HTTP][39m [37m-->[39m [37mGET[39m [37m/wd/hub/session/de6fbf20-52eb-4319-9083-2d5444f8ae74/element/00000000-0000-00d3-7fff-ffff00000022/location[39m
[35m[HTTP][39m [90m{}[39m
[35m[W3C (de6fbf20)][39m Driver proxy active, passing request on via HTTP proxy
[35m[WD Proxy][39m Replacing sessionId e05d05b0-6f80-4f32-b60d-1744779b6ea3 with de6fbf20-52eb-4319-9083-2d5444f8ae74
[35m[HTTP][39m [37m<-- GET /wd/hub/session/de6fbf20-52eb-4319-9083-2d5444f8ae74/element/00000000-0000-00d3-7fff-ffff00000022/location [39m[32m200[39m [90m8 ms - 77[39m
[35m[HTTP][39m [90m[39m
[35m[HTTP][39m [37m-->[39m [37mPOST[39m [37m/wd/hub/session/de6fbf20-52eb-4319-9083-2d5444f8ae74/element/00000000-0000-00d3-7fff-ffff00000022/clear[39m
[35m[HTTP][39m [90m{"id":"00000000-0000-00d3-7fff-ffff00000022"}[39m
[35m[HTTP][39m [37m<-- POST /wd/hub/session/de6fbf20-52eb-4319-9083-2d5444f8ae74/element/00000000-0000-00d3-7fff-ffff00000022/clear [39m[32m200[39m [90m9 ms - 14[39m
[35m[HTTP][39m [90m[39m
[35m[HTTP][39m [37m-->[39m [37mPOST[39m [37m/wd/hub/session/de6fbf20-52eb-4319-9083-2d5444f8ae74/element/00000000-0000-00d3-7fff-ffff00000022/value[39m
[35m[HTTP][39m [90m{"id":"00000000-0000-00d3-7fff-ffff00000022","text":"wasdrftvg","value":["w","a","s","d","r","f","t","v","g"]}[39m
[35m[HTTP][39m [37m<-- POST /wd/hub/session/de6fbf20-52eb-4319-9083-2d5444f8ae74/element/00000000-0000-00d3-7fff-ffff00000022/value [39m[32m200[39m [90m500 ms - 14[39m
[35m[HTTP][39m [90m[39m
[35m[HTTP][39m [37m-->[39m [37mGET[39m [37m/wd/hub/session/de6fbf20-52eb-4319-9083-2d5444f8ae74/source[39m
[35m[HTTP][39m [90m{}[39m
[35m[W3C (de6fbf20)][39m Driver proxy active, passing request on via HTTP proxy
[35m[WD Proxy][39m Replacing sessionId e05d05b0-6f80-4f32-b60d-1744779b6ea3 with de6fbf20-52eb-4319-9083-2d5444f8ae74
[35m[HTTP][39m [37m<-- GET /wd/hub/session/de6fbf20-52eb-4319-9083-2d5444f8ae74/source [39m[32m200[39m [90m18 ms - 8520[39m
[35m[HTTP][39m [90m[39m
[35m[HTTP][39m [37m-->[39m [37mGET[39m [37m/wd/hub/session/de6fbf20-52eb-4319-9083-2d5444f8ae74/screenshot[39m
[35m[HTTP][39m [90m{}[39m
[35m[HTTP][39m [37m<-- GET /wd/hub/session/de6fbf20-52eb-4319-9083-2d5444f8ae74/screenshot [39m[32m200[39m [90m272 ms - 88928[39m
[35m[HTTP][39m [90m[39m
[35m[HTTP][39m [37m-->[39m [37mPOST[39m [37m/wd/hub/session/de6fbf20-52eb-4319-9083-2d5444f8ae74/elements[39m
[35m[HTTP][39m [90m{"using":"xpath","value":"//*[@class = 'android.widget.EditText' and @resource-id = 'com.loginmodule.learning:id/textInputEditTextConfirmPassword' and (@text = '' or . = '')]"}[39m
[35m[HTTP][39m [37m<-- POST /wd/hub/session/de6fbf20-52eb-4319-9083-2d5444f8ae74/elements [39m[32m200[39m [90m19 ms - 139[39m
[35m[HTTP][39m [90m[39m
[35m[HTTP][39m [37m-->[39m [37mGET[39m [37m/wd/hub/session/de6fbf20-52eb-4319-9083-2d5444f8ae74/window/rect[39m
[35m[HTTP][39m [90m{}[39m
[35m[HTTP][39m [37m<-- GET /wd/hub/session/de6fbf20-52eb-4319-9083-2d5444f8ae74/window/rect [39m[32m200[39m [90m5 ms - 50[39m
[35m[HTTP][39m [90m[39m
[35m[HTTP][39m [37m-->[39m [37mPOST[39m [37m/wd/hub/session/de6fbf20-52eb-4319-9083-2d5444f8ae74/elements[39m
[35m[HTTP][39m [90m{"using":"xpath","value":"//*[@class = 'android.widget.EditText' and @resource-id = 'com.loginmodule.learning:id/textInputEditTextConfirmPassword' and (@text = '' or . = '')]"}[39m
[35m[HTTP][39m [37m<-- POST /wd/hub/session/de6fbf20-52eb-4319-9083-2d5444f8ae74/elements [39m[32m200[39m [90m14 ms - 139[39m
[35m[HTTP][39m [90m[39m
[35m[HTTP][39m [37m-->[39m [37mGET[39m [37m/wd/hub/session/de6fbf20-52eb-4319-9083-2d5444f8ae74/element/00000000-0000-00d3-7fff-ffff00000023/location[39m
[35m[HTTP][39m [90m{}[39m
[35m[W3C (de6fbf20)][39m Driver proxy active, passing request on via HTTP proxy
[35m[WD Proxy][39m Replacing sessionId e05d05b0-6f80-4f32-b60d-1744779b6ea3 with de6fbf20-52eb-4319-9083-2d5444f8ae74
[35m[HTTP][39m [37m<-- GET /wd/hub/session/de6fbf20-52eb-4319-9083-2d5444f8ae74/element/00000000-0000-00d3-7fff-ffff00000023/location [39m[32m200[39m [90m7 ms - 78[39m
[35m[HTTP][39m [90m[39m
[35m[HTTP][39m [37m-->[39m [37mPOST[39m [37m/wd/hub/session/de6fbf20-52eb-4319-9083-2d5444f8ae74/element/00000000-0000-00d3-7fff-ffff00000023/clear[39m
[35m[HTTP][39m [90m{"id":"00000000-0000-00d3-7fff-ffff00000023"}[39m
[35m[HTTP][39m [37m<-- POST /wd/hub/session/de6fbf20-52eb-4319-9083-2d5444f8ae74/element/00000000-0000-00d3-7fff-ffff00000023/clear [39m[32m200[39m [90m7 ms - 14[39m
[35m[HTTP][39m [90m[39m
[35m[HTTP][39m [37m-->[39m [37mPOST[39m [37m/wd/hub/session/de6fbf20-52eb-4319-9083-2d5444f8ae74/element/00000000-0000-00d3-7fff-ffff00000023/value[39m
[35m[HTTP][39m [90m{"id":"00000000-0000-00d3-7fff-ffff00000023","text":"xfcvgbhjn","value":["x","f","c","v","g","b","h","j","n"]}[39m
[35m[HTTP][39m [37m<-- POST /wd/hub/session/de6fbf20-52eb-4319-9083-2d5444f8ae74/element/00000000-0000-00d3-7fff-ffff00000023/value [39m[32m200[39m [90m499 ms - 14[39m
[35m[HTTP][39m [90m[39m
[35m[HTTP][39m [37m-->[39m [37mGET[39m [37m/wd/hub/session/de6fbf20-52eb-4319-9083-2d5444f8ae74/source[39m
[35m[HTTP][39m [90m{}[39m
[35m[W3C (de6fbf20)][39m Driver proxy active, passing request on via HTTP proxy
[35m[WD Proxy][39m Replacing sessionId e05d05b0-6f80-4f32-b60d-1744779b6ea3 with de6fbf20-52eb-4319-9083-2d5444f8ae74
[35m[HTTP][39m [37m<-- GET /wd/hub/session/de6fbf20-52eb-4319-9083-2d5444f8ae74/source [39m[32m200[39m [90m19 ms - 8547[39m
[35m[HTTP][39m [90m[39m
[35m[HTTP][39m [37m-->[39m [37mGET[39m [37m/wd/hub/session/de6fbf20-52eb-4319-9083-2d5444f8ae74/screenshot[39m
[35m[HTTP][39m [90m{}[39m
[35m[HTTP][39m [37m<-- GET /wd/hub/session/de6fbf20-52eb-4319-9083-2d5444f8ae74/screenshot [39m[32m200[39m [90m310 ms - 86212[39m
[35m[HTTP][39m [90m[39m
[35m[HTTP][39m [37m-->[39m [37mPOST[39m [37m/wd/hub/session/de6fbf20-52eb-4319-9083-2d5444f8ae74/elements[39m
[35m[HTTP][39m [90m{"using":"xpath","value":"//*[@class = 'android.widget.Button' and (@text = 'REGISTER' or . = 'REGISTER') and @resource-id = 'com.loginmodule.learning:id/appCompatButtonRegister']"}[39m
[35m[HTTP][39m [37m<-- POST /wd/hub/session/de6fbf20-52eb-4319-9083-2d5444f8ae74/elements [39m[32m200[39m [90m16 ms - 139[39m
[35m[HTTP][39m [90m[39m
[35m[HTTP][39m [37m-->[39m [37mGET[39m [37m/wd/hub/session/de6fbf20-52eb-4319-9083-2d5444f8ae74/window/rect[39m
[35m[HTTP][39m [90m{}[39m
[35m[HTTP][39m [37m<-- GET /wd/hub/session/de6fbf20-52eb-4319-9083-2d5444f8ae74/window/rect [39m[32m200[39m [90m5 ms - 50[39m
[35m[HTTP][39m [90m[39m
[35m[HTTP][39m [37m-->[39m [37mPOST[39m [37m/wd/hub/session/de6fbf20-52eb-4319-9083-2d5444f8ae74/elements[39m
[35m[HTTP][39m [90m{"using":"xpath","value":"//*[@class = 'android.widget.Button' and (@text = 'REGISTER' or . = 'REGISTER') and @resource-id = 'com.loginmodule.learning:id/appCompatButtonRegister']"}[39m
[35m[HTTP][39m [37m<-- POST /wd/hub/session/de6fbf20-52eb-4319-9083-2d5444f8ae74/elements [39m[32m200[39m [90m16 ms - 139[39m
[35m[HTTP][39m [90m[39m
[35m[HTTP][39m [37m-->[39m [37mGET[39m [37m/wd/hub/session/de6fbf20-52eb-4319-9083-2d5444f8ae74/element/00000000-0000-00d3-7fff-ffff0000001f/location[39m
[35m[HTTP][39m [90m{}[39m
[35m[W3C (de6fbf20)][39m Driver proxy active, passing request on via HTTP proxy
[35m[WD Proxy][39m Replacing sessionId e05d05b0-6f80-4f32-b60d-1744779b6ea3 with de6fbf20-52eb-4319-9083-2d5444f8ae74
[35m[HTTP][39m [37m<-- GET /wd/hub/session/de6fbf20-52eb-4319-9083-2d5444f8ae74/element/00000000-0000-00d3-7fff-ffff0000001f/location [39m[32m200[39m [90m7 ms - 78[39m
[35m[HTTP][39m [90m[39m
[35m[HTTP][39m [37m-->[39m [37mPOST[39m [37m/wd/hub/session/de6fbf20-52eb-4319-9083-2d5444f8ae74/element/00000000-0000-00d3-7fff-ffff0000001f/click[39m
[35m[HTTP][39m [90m{"id":"00000000-0000-00d3-7fff-ffff0000001f"}[39m
[35m[HTTP][39m [37m<-- POST /wd/hub/session/de6fbf20-52eb-4319-9083-2d5444f8ae74/element/00000000-0000-00d3-7fff-ffff0000001f/click [39m[32m200[39m [90m9 ms - 14[39m
[35m[HTTP][39m [90m[39m
[35m[HTTP][39m [37m-->[39m [37mGET[39m [37m/wd/hub/session/de6fbf20-52eb-4319-9083-2d5444f8ae74/source[39m
[35m[HTTP][39m [90m{}[39m
[35m[W3C (de6fbf20)][39m Driver proxy active, passing request on via HTTP proxy
[35m[WD Proxy][39m Replacing sessionId e05d05b0-6f80-4f32-b60d-1744779b6ea3 with de6fbf20-52eb-4319-9083-2d5444f8ae74
[35m[HTTP][39m [37m<-- GET /wd/hub/session/de6fbf20-52eb-4319-9083-2d5444f8ae74/source [39m[32m200[39m [90m64 ms - 9411[39m
[35m[HTTP][39m [90m[39m
[35m[HTTP][39m [37m-->[39m [37mGET[39m [37m/wd/hub/session/de6fbf20-52eb-4319-9083-2d5444f8ae74/screenshot[39m
[35m[HTTP][39m [90m{}[39m
[35m[HTTP][39m [37m<-- GET /wd/hub/session/de6fbf20-52eb-4319-9083-2d5444f8ae74/screenshot [39m[32m200[39m [90m286 ms - 93686[39m
[35m[HTTP][39m [90m[39m
